{
  "name": "bamburgh-angular-admin-dashboard-ngx-bootstrap-pro",
  "version": "1.0.0",
  "title": "Bamburgh Angular Admin Dashboard with NGX Bootstrap PRO",
  "description": "It&#39;s the most complete frontend development solution that will help you build powerful &amp; scalable web applications or beautiful presentation websites.",
  "author": {
    "name": "UiFort.com",
    "url": "https://uifort.com"
  },
  "license": "",
  "repository": {
    "type": "git",
    "url": "https://github.com/uifort/bamburgh-angular-admin-dashboard-ngx-bootstrap-pro"
  },
  "scripts": {
    "ng": "ng",
    "start": "ng serve",
    "build": "ng build",
    "test": "ng test",
    "lint": "ng lint",
    "e2e": "ng e2e",
    "format": ""
  },
  "private": true,
  "dependencies": {
    "@agm/core": "1.0.0",
    "@angular/animations": "~8.2.10",
    "@angular/cdk": "8.2.1",
    "@angular/common": "~8.2.10",
    "@angular/compiler": "~8.2.10",
    "@angular/core": "~8.2.10",
    "@angular/forms": "~8.2.10",
    "@angular/platform-browser": "~8.2.10",
    "@angular/platform-browser-dynamic": "~8.2.10",
    "@angular/router": "~8.2.10",
    "@asymmetrik/ngx-leaflet": "6.0.1",
    "@fortawesome/angular-fontawesome": "0.5.0",
    "@fortawesome/fontawesome-svg-core": "1.2.25",
    "@fortawesome/free-brands-svg-icons": "5.11.2",
    "@fortawesome/free-regular-svg-icons": "5.11.2",
    "@fortawesome/free-solid-svg-icons": "5.11.2",
    "@kolkov/angular-editor": "1.0.0-beta.4",
    "@ng-select/ng-select": "3.0.7",
    "@ngx-formly/bootstrap": "5.4.3",
    "@ngx-formly/core": "5.4.3",
    "@ngx-progressbar/core": "5.3.2",
    "@ngx-progressbar/router": "5.3.2",
    "@sweetalert2/ngx-sweetalert2": "6.0.1",
    "angular-archwizard": "5.0.0",
    "angular-calendar": "0.27.19",
    "angular-datatables": "^12.0.0",
    "angular-dual-listbox": "5.0.1",
    "angular-feather": "6.0.2",
    "angular-gauge": "3.1.2",
    "angular-notifier": "4.1.1",
    "angular-tree-component": "8.4.0",
    "angular-tree-grid": "2.7.0",
    "angular2-ladda": "2.0.2",
    "angular2-text-mask": "9.0.0",
    "apexcharts": "3.10.0",
    "bootstrap": "4.4.0",
    "chart.js": "2.8.0",
    "chartjs-plugin-annotation": "0.5.7",
    "chartjs-plugin-datalabels": "0.7.0",
    "countup.js-angular2": "7.3.0",
    "datatables.net": "^1.10.20",
    "datatables.net-bs4": "^1.10.20",
    "date-fns": "1.30.1",
    "flag-icon-css": "3.4.0",
    "hamburgers": "1.1.3",
    "ionicons": "4.6.3",
    "jquery": "3.4.1",
    "leaflet": "1.6.0",
    "ng-apexcharts": "1.1.0",
    "ng-circle-progress": "1.5.1",
    "ng-spin-kit": "5.1.1",
    "ng2-charts": "2.3.0",
    "ng2-completer": "3.0.2",
    "ng2-dragula": "2.1.1",
    "ng2-file-upload": "1.3.0",
    "ng2-nouislider": "1.8.2",
    "ng2-smart-table": "1.5.0",
    "ng2-table": "1.3.2",
    "ngx-autosize": "1.6.4",
    "ngx-bar-rating": "1.1.0",
    "ngx-bootstrap": "5.3.2",
    "ngx-clipboard": "12.2.1",
    "ngx-color-picker": "8.2.0",
    "ngx-contextmenu": "5.2.0",
    "ngx-dropzone-wrapper": "8.0.0",
    "ngx-flag-icon-css": "1.0.1",
    "ngx-gauge": "1.0.0-beta.11",
    "ngx-image-cropper": "2.0.2",
    "ngx-infinite-scroll": "8.0.1",
    "ngx-joyride": "2.2.10",
    "ngx-pagination": "4.1.0",
    "ngx-perfect-scrollbar": "8.0.0",
    "ngx-skeleton-loader": "1.2.2",
    "ngx-slick-carousel": "0.4.6",
    "ngx-spinner": "8.0.3",
    "ngx-trend": "4.0.0",
    "ngx-ui-switch": "8.2.0",
    "nouislider": "14.0.2",
    "pe7-icon": "1.0.4",
    "rxjs": "~6.4.0",
    "slick-carousel": "1.8.1",
    "socicon": "3.0.5",
    "sweetalert2": "8.17.6",
    "tslib": "^1.10.0",
    "uuid": "3.3.3",
    "zone.js": "~0.9.1"
  },
  "devDependencies": {
    "@angular-devkit/build-angular": "~0.803.3",
    "@angular/cli": "~8.3.3",
    "@angular/compiler-cli": "~8.2.10",
    "@angular/language-service": "~8.2.10",
    "@types/datatables.net": "^1.10.18",
    "@types/jasmine": "~3.3.8",
    "@types/jasminewd2": "~2.0.3",
    "@types/jquery": "^3.3.33",
    "@types/node": "~8.9.4",
    "codelyzer": "^5.0.0",
    "jasmine-core": "~3.4.0",
    "jasmine-spec-reporter": "~4.2.1",
    "karma": "~4.1.0",
    "karma-chrome-launcher": "~2.2.0",
    "karma-coverage-istanbul-reporter": "~2.0.1",
    "karma-jasmine": "~2.0.1",
    "karma-jasmine-html-reporter": "^1.4.0",
    "prettier": "1.19.1",
    "protractor": "~5.4.0",
    "ts-node": "~7.0.0",
    "tslint": "~5.15.0",
    "tslint-config-prettier": "1.18.0",
    "tslint-plugin-prettier": "2.1.0",
    "typescript": "~3.5.3"
  }
}
