
{
  "header": {
    "reportVersion": 2,
    "event": "Allocation failed - JavaScript heap out of memory",
    "trigger": "FatalError",
    "filename": "report.20210628.182204.9912.0.001.json",
    "dumpEventTime": "2021-06-28T18:22:04Z",
    "dumpEventTimeStamp": "1624900924623",
    "processId": 9912,
    "threadId": null,
    "cwd": "C:\\xampp\\htdocs\\elagefrontfinale",
    "commandLine": [
      "C:\\Program Files\\nodejs\\node.exe",
      "C:\\Users\\Zouhair\\AppData\\Roaming\\npm/node_modules/@angular/cli/bin/ng",
      "serve",
      "--open"
    ],
    "nodejsVersion": "v12.16.2",
    "wordSize": 64,
    "arch": "x64",
    "platform": "win32",
    "componentVersions": {
      "node": "12.16.2",
      "v8": "7.8.279.23-node.34",
      "uv": "1.34.2",
      "zlib": "1.2.11",
      "brotli": "1.0.7",
      "ares": "1.15.0",
      "modules": "72",
      "nghttp2": "1.40.0",
      "napi": "5",
      "llhttp": "2.0.4",
      "http_parser": "2.9.3",
      "openssl": "1.1.1e",
      "cldr": "36.0",
      "icu": "65.1",
      "tz": "2019c",
      "unicode": "12.1"
    },
    "release": {
      "name": "node",
      "lts": "Erbium",
      "headersUrl": "https://nodejs.org/download/release/v12.16.2/node-v12.16.2-headers.tar.gz",
      "sourceUrl": "https://nodejs.org/download/release/v12.16.2/node-v12.16.2.tar.gz",
      "libUrl": "https://nodejs.org/download/release/v12.16.2/win-x64/node.lib"
    },
    "osName": "Windows_NT",
    "osRelease": "10.0.19042",
    "osVersion": "Windows 10 Pro",
    "osMachine": "x86_64",
    "cpus": [
      {
        "model": "Intel(R) Core(TM) i7-8665U CPU @ 1.90GHz",
        "speed": 2112,
        "user": 5321406,
        "nice": 0,
        "sys": 8991812,
        "idle": 230852156,
        "irq": 876968
      },
      {
        "model": "Intel(R) Core(TM) i7-8665U CPU @ 1.90GHz",
        "speed": 2112,
        "user": 3844312,
        "nice": 0,
        "sys": 2815859,
        "idle": 238505015,
        "irq": 145484
      },
      {
        "model": "Intel(R) Core(TM) i7-8665U CPU @ 1.90GHz",
        "speed": 2112,
        "user": 8074890,
        "nice": 0,
        "sys": 5274062,
        "idle": 231816234,
        "irq": 88953
      },
      {
        "model": "Intel(R) Core(TM) i7-8665U CPU @ 1.90GHz",
        "speed": 2112,
        "user": 5178609,
        "nice": 0,
        "sys": 2884656,
        "idle": 237101921,
        "irq": 53671
      },
      {
        "model": "Intel(R) Core(TM) i7-8665U CPU @ 1.90GHz",
        "speed": 2112,
        "user": 7802109,
        "nice": 0,
        "sys": 5025500,
        "idle": 232337578,
        "irq": 99906
      },
      {
        "model": "Intel(R) Core(TM) i7-8665U CPU @ 1.90GHz",
        "speed": 2112,
        "user": 5090390,
        "nice": 0,
        "sys": 2893031,
        "idle": 237181765,
        "irq": 45015
      },
      {
        "model": "Intel(R) Core(TM) i7-8665U CPU @ 1.90GHz",
        "speed": 2112,
        "user": 7834265,
        "nice": 0,
        "sys": 3662562,
        "idle": 233668343,
        "irq": 74937
      },
      {
        "model": "Intel(R) Core(TM) i7-8665U CPU @ 1.90GHz",
        "speed": 2112,
        "user": 6378093,
        "nice": 0,
        "sys": 2916031,
        "idle": 235871046,
        "irq": 39859
      }
    ],
    "networkInterfaces": [
      {
        "name": "Connexion au réseau local",
        "internal": false,
        "mac": "00:ff:9a:a8:4c:f2",
        "address": "fe80::b1cc:ff56:de7f:1d6b",
        "netmask": "ffff:ffff:ffff:ffff::",
        "family": "IPv6",
        "scopeid": 17
      },
      {
        "name": "Connexion au réseau local",
        "internal": false,
        "mac": "00:ff:9a:a8:4c:f2",
        "address": "10.10.10.20",
        "netmask": "255.255.255.0",
        "family": "IPv4"
      },
      {
        "name": "vEthernet (Default Switch)",
        "internal": false,
        "mac": "00:15:5d:88:ec:5f",
        "address": "fe80::4de8:f31:2bdf:41a8",
        "netmask": "ffff:ffff:ffff:ffff::",
        "family": "IPv6",
        "scopeid": 57
      },
      {
        "name": "vEthernet (Default Switch)",
        "internal": false,
        "mac": "00:15:5d:88:ec:5f",
        "address": "172.30.240.1",
        "netmask": "255.255.240.0",
        "family": "IPv4"
      },
      {
        "name": "vEthernet (local VM)",
        "internal": false,
        "mac": "00:15:5d:91:0c:04",
        "address": "fe80::5df1:4a1d:d7a0:e260",
        "netmask": "ffff:ffff:ffff:ffff::",
        "family": "IPv6",
        "scopeid": 11
      },
      {
        "name": "vEthernet (local VM)",
        "internal": false,
        "mac": "00:15:5d:91:0c:04",
        "address": "192.168.137.1",
        "netmask": "255.255.255.0",
        "family": "IPv4"
      },
      {
        "name": "Wi-Fi",
        "internal": false,
        "mac": "60:f2:62:99:cf:e6",
        "address": "192.168.145.12",
        "netmask": "255.255.255.0",
        "family": "IPv4"
      },
      {
        "name": "Loopback Pseudo-Interface 1",
        "internal": true,
        "mac": "00:00:00:00:00:00",
        "address": "::1",
        "netmask": "ffff:ffff:ffff:ffff:ffff:ffff:ffff:ffff",
        "family": "IPv6",
        "scopeid": 0
      },
      {
        "name": "Loopback Pseudo-Interface 1",
        "internal": true,
        "mac": "00:00:00:00:00:00",
        "address": "127.0.0.1",
        "netmask": "255.0.0.0",
        "family": "IPv4"
      }
    ],
    "host": "DESKTOP-67J1H08"
  },
  "javascriptStack": {
    "message": "No stack.",
    "stack": [
      "Unavailable."
    ]
  },
  "nativeStack": [
    {
      "pc": "0x00007ff6cba12309",
      "symbol": "std::basic_ostream<char,std::char_traits<char> >::operator<<+11577"
    },
    {
      "pc": "0x00007ff6cba16869",
      "symbol": "std::basic_ostream<char,std::char_traits<char> >::operator<<+29337"
    },
    {
      "pc": "0x00007ff6cba156e8",
      "symbol": "std::basic_ostream<char,std::char_traits<char> >::operator<<+24856"
    },
    {
      "pc": "0x00007ff6cbb3dd82",
      "symbol": "v8::base::CPU::has_sse+59378"
    },
    {
      "pc": "0x00007ff6cc35a27e",
      "symbol": "v8::Isolate::ReportExternalAllocationLimitReached+94"
    },
    {
      "pc": "0x00007ff6cc342351",
      "symbol": "v8::SharedArrayBuffer::Externalize+833"
    },
    {
      "pc": "0x00007ff6cc20e8ac",
      "symbol": "v8::internal::Heap::EphemeronKeyWriteBarrierFromCode+1436"
    },
    {
      "pc": "0x00007ff6cc219ae0",
      "symbol": "v8::internal::Heap::ProtectUnprotectedMemoryChunks+1312"
    },
    {
      "pc": "0x00007ff6cc216604",
      "symbol": "v8::internal::Heap::PageFlagsAreConsistent+3204"
    },
    {
      "pc": "0x00007ff6cc20be03",
      "symbol": "v8::internal::Heap::CollectGarbage+1283"
    },
    {
      "pc": "0x00007ff6cc20a474",
      "symbol": "v8::internal::Heap::AddRetainedMap+2452"
    },
    {
      "pc": "0x00007ff6cc23212f",
      "symbol": "v8::internal::Factory::NewRawTwoByteString+95"
    },
    {
      "pc": "0x00007ff6cc053fbc",
      "symbol": "v8::internal::String::SlowFlatten+492"
    },
    {
      "pc": "0x00007ff6cbf1b9bf",
      "symbol": "unibrow::Utf8::EncodeOneByte+687"
    },
    {
      "pc": "0x00007ff6cc053cee",
      "symbol": "v8::internal::String::SlowEquals+606"
    },
    {
      "pc": "0x00007ff6cbf55dd7",
      "symbol": "v8::internal::StubCache::value_reference+8487"
    },
    {
      "pc": "0x00007ff6cc7a730d",
      "symbol": "v8::internal::SetupIsolateDelegate::SetupHeap+546637"
    },
    {
      "pc": "0x00007ff6cc769ea6",
      "symbol": "v8::internal::SetupIsolateDelegate::SetupHeap+295654"
    },
    {
      "pc": "0x000003c3d155a68a",
      "symbol": ""
    }
  ],
  "javascriptHeap": {
    "totalMemory": 2182811648,
    "totalCommittedMemory": 2182811648,
    "usedMemory": 2087349480,
    "availableMemory": 44046984,
    "memoryLimit": 2197815296,
    "heapSpaces": {
      "read_only_space": {
        "memorySize": 262144,
        "committedMemory": 262144,
        "capacity": 32808,
        "used": 32808,
        "available": 0
      },
      "new_space": {
        "memorySize": 33554432,
        "committedMemory": 33554432,
        "capacity": 16759296,
        "used": 4910568,
        "available": 11848728
      },
      "old_space": {
        "memorySize": 1818370048,
        "committedMemory": 1818370048,
        "capacity": 1791547768,
        "used": 1791112456,
        "available": 435312
      },
      "code_space": {
        "memorySize": 5410816,
        "committedMemory": 5410816,
        "capacity": 4793024,
        "used": 4793024,
        "available": 0
      },
      "map_space": {
        "memorySize": 44830720,
        "committedMemory": 44830720,
        "capacity": 6816080,
        "used": 6816080,
        "available": 0
      },
      "large_object_space": {
        "memorySize": 279760896,
        "committedMemory": 279760896,
        "capacity": 279140256,
        "used": 279140256,
        "available": 0
      },
      "code_large_object_space": {
        "memorySize": 622592,
        "committedMemory": 622592,
        "capacity": 544288,
        "used": 544288,
        "available": 0
      },
      "new_large_object_space": {
        "memorySize": 0,
        "committedMemory": 0,
        "capacity": 16759296,
        "used": 0,
        "available": 16759296
      }
    }
  },
  "resourceUsage": {
    "userCpuSeconds": 503.546,
    "kernelCpuSeconds": 47.375,
    "cpuConsumptionPercent": 51.344,
    "maxRss": 2477932544,
    "pageFaults": {
      "IORequired": 2871270,
      "IONotRequired": 0
    },
    "fsActivity": {
      "reads": 13468,
      "writes": 13
    }
  },
  "libuv": [
  ],
  "workers": [
  ],
  "environmentVariables": {
    "ALLUSERSPROFILE": "C:\\ProgramData",
    "ANDROID_HOME": "C:\\Users\\Zouhair\\AppData\\Local\\Android\\Sdk",
    "ANDROID_SDK_ROOT": "C:\\Users\\Zouhair\\AppData\\Local\\Android\\Sdk",
    "APPDATA": "C:\\Users\\Zouhair\\AppData\\Roaming",
    "BROWSERSLIST_IGNORE_OLD_DATA": "1",
    "CHROME_CRASHPAD_PIPE_NAME": "\\\\.\\pipe\\crashpad_9076_NUHQEAOOFEFRSZLN",
    "CommonProgramFiles": "C:\\Program Files\\Common Files",
    "CommonProgramFiles(x86)": "C:\\Program Files (x86)\\Common Files",
    "CommonProgramW6432": "C:\\Program Files\\Common Files",
    "COMPUTERNAME": "DESKTOP-67J1H08",
    "ComSpec": "C:\\WINDOWS\\system32\\cmd.exe",
    "DriverData": "C:\\Windows\\System32\\Drivers\\DriverData",
    "FPS_BROWSER_APP_PROFILE_STRING": "Internet Explorer",
    "FPS_BROWSER_USER_PROFILE_STRING": "Default",
    "HOMEDRIVE": "C:",
    "HOMEPATH": "\\Users\\Zouhair",
    "JAVA_HOME": "C:\\Program Files\\Java\\jdk1.8.0_241",
    "LOCALAPPDATA": "C:\\Users\\Zouhair\\AppData\\Local",
    "LOGONSERVER": "\\\\DESKTOP-67J1H08",
    "NUMBER_OF_PROCESSORS": "8",
    "OneDrive": "C:\\Users\\Zouhair\\OneDrive",
    "OneDriveConsumer": "C:\\Users\\Zouhair\\OneDrive",
    "OPENSSL_CONF": "C:\\Program Files\\PostgreSQL\\psqlODBC\\etc\\openssl.cnf",
    "ORIGINAL_XDG_CURRENT_DESKTOP": "undefined",
    "OS": "Windows_NT",
    "Path": "C:\\Program Files (x86)\\Common Files\\Oracle\\Java\\javapath;C:\\WINDOWS\\system32;C:\\WINDOWS;C:\\WINDOWS\\System32\\Wbem;C:\\WINDOWS\\System32\\WindowsPowerShell\\v1.0\\;C:\\WINDOWS\\System32\\OpenSSH\\;C:\\xampp\\php;C:\\Program Files\\Java\\jdk1.8.0_241\\bin;C:\\Users\\Zouhair\\AppData\\Local\\Android\\Sdk;\"C:\\Users\\Zouhair\\AppData\\Local\\Android\\Sdk\\tools;C:\\Users\\Zouhair\\AppData\\Local\\Android\\Sdk\\platform-tools\";C:\\gradle-6.3\\bin;C:\\Program Files\\nodejs\\;C:\\ProgramData\\ComposerSetup\\bin;C:\\curl;C:\\Program Files\\MySQL\\MySQL Utilities 1.6\\;C:\\Users\\Zouhair\\AppData\\Local\\Android\\Sdk;C:\\Program Files\\Symfony;C:\\Program Files\\Git\\cmd;C:\\Program Files\\PuTTY\\;C:\\Users\\Zouhair\\AppData\\Local\\Microsoft\\WindowsApps;;C:\\Users\\Zouhair\\AppData\\Local\\Programs\\Microsoft VS Code\\bin;C:\\Users\\Zouhair\\AppData\\Roaming\\npm;C:\\Users\\Zouhair\\AppData\\Roaming\\Composer\\vendor\\bin",
    "PATHEXT": ".COM;.EXE;.BAT;.CMD;.VBS;.VBE;.JS;.JSE;.WSF;.WSH;.MSC;.CPL",
    "PROCESSOR_ARCHITECTURE": "AMD64",
    "PROCESSOR_IDENTIFIER": "Intel64 Family 6 Model 142 Stepping 12, GenuineIntel",
    "PROCESSOR_LEVEL": "6",
    "PROCESSOR_REVISION": "8e0c",
    "ProgramData": "C:\\ProgramData",
    "ProgramFiles": "C:\\Program Files",
    "ProgramFiles(x86)": "C:\\Program Files (x86)",
    "ProgramW6432": "C:\\Program Files",
    "PSModulePath": "C:\\Users\\Zouhair\\Documents\\WindowsPowerShell\\Modules;C:\\Program Files\\WindowsPowerShell\\Modules;C:\\WINDOWS\\system32\\WindowsPowerShell\\v1.0\\Modules",
    "PUBLIC": "C:\\Users\\Public",
    "SESSIONNAME": "Console",
    "SystemDrive": "C:",
    "SystemRoot": "C:\\WINDOWS",
    "TEMP": "C:\\Users\\Zouhair\\AppData\\Local\\Temp",
    "TMP": "C:\\Users\\Zouhair\\AppData\\Local\\Temp",
    "USERDOMAIN": "DESKTOP-67J1H08",
    "USERDOMAIN_ROAMINGPROFILE": "DESKTOP-67J1H08",
    "USERNAME": "Zouhair",
    "USERPROFILE": "C:\\Users\\Zouhair",
    "WEBPACK_DEV_SERVER": "true",
    "windir": "C:\\WINDOWS",
    "ZES_ENABLE_SYSMAN": "1",
    "TERM_PROGRAM": "vscode",
    "TERM_PROGRAM_VERSION": "1.57.1",
    "LANG": "fr_FR.UTF-8",
    "COLORTERM": "truecolor",
    "VSCODE_GIT_IPC_HANDLE": "\\\\.\\pipe\\vscode-git-32c6a2f52b-sock",
    "GIT_ASKPASS": "c:\\Users\\Zouhair\\AppData\\Local\\Programs\\Microsoft VS Code\\resources\\app\\extensions\\git\\dist\\askpass.sh",
    "VSCODE_GIT_ASKPASS_NODE": "C:\\Users\\Zouhair\\AppData\\Local\\Programs\\Microsoft VS Code\\Code.exe",
    "VSCODE_GIT_ASKPASS_MAIN": "c:\\Users\\Zouhair\\AppData\\Local\\Programs\\Microsoft VS Code\\resources\\app\\extensions\\git\\dist\\askpass-main.js"
  },
  "sharedObjects": [
    "C:\\Program Files\\nodejs\\node.exe",
    "C:\\WINDOWS\\SYSTEM32\\ntdll.dll",
    "C:\\WINDOWS\\System32\\KERNEL32.DLL",
    "C:\\WINDOWS\\System32\\KERNELBASE.dll",
    "C:\\WINDOWS\\System32\\WS2_32.dll",
    "C:\\WINDOWS\\System32\\RPCRT4.dll",
    "C:\\WINDOWS\\SYSTEM32\\dbghelp.dll",
    "C:\\WINDOWS\\System32\\PSAPI.DLL",
    "C:\\WINDOWS\\System32\\ucrtbase.dll",
    "C:\\WINDOWS\\System32\\ADVAPI32.dll",
    "C:\\WINDOWS\\System32\\msvcrt.dll",
    "C:\\WINDOWS\\SYSTEM32\\IPHLPAPI.DLL",
    "C:\\WINDOWS\\SYSTEM32\\USERENV.dll",
    "C:\\WINDOWS\\System32\\sechost.dll",
    "C:\\WINDOWS\\System32\\USER32.dll",
    "C:\\WINDOWS\\System32\\win32u.dll",
    "C:\\WINDOWS\\System32\\GDI32.dll",
    "C:\\WINDOWS\\System32\\gdi32full.dll",
    "C:\\WINDOWS\\System32\\msvcp_win.dll",
    "C:\\WINDOWS\\System32\\CRYPT32.dll",
    "C:\\WINDOWS\\System32\\bcrypt.dll",
    "C:\\WINDOWS\\SYSTEM32\\WINMM.dll",
    "C:\\WINDOWS\\System32\\IMM32.DLL",
    "C:\\WINDOWS\\SYSTEM32\\powrprof.dll",
    "C:\\WINDOWS\\SYSTEM32\\UMPDC.dll",
    "C:\\WINDOWS\\SYSTEM32\\CRYPTBASE.DLL",
    "C:\\WINDOWS\\system32\\uxtheme.dll",
    "C:\\WINDOWS\\System32\\combase.dll",
    "C:\\WINDOWS\\system32\\mswsock.dll",
    "C:\\WINDOWS\\SYSTEM32\\kernel.appcore.dll",
    "C:\\WINDOWS\\System32\\bcryptprimitives.dll",
    "C:\\WINDOWS\\System32\\NSI.dll",
    "C:\\WINDOWS\\SYSTEM32\\dhcpcsvc6.DLL",
    "C:\\WINDOWS\\SYSTEM32\\dhcpcsvc.DLL",
    "C:\\WINDOWS\\SYSTEM32\\DNSAPI.dll",
    "C:\\Windows\\System32\\rasadhlp.dll",
    "C:\\WINDOWS\\System32\\fwpuclnt.dll",
    "C:\\WINDOWS\\system32\\napinsp.dll",
    "C:\\WINDOWS\\system32\\pnrpnsp.dll",
    "C:\\WINDOWS\\system32\\wshbth.dll",
    "C:\\WINDOWS\\system32\\NLAapi.dll",
    "C:\\WINDOWS\\System32\\winrnr.dll"
  ]
}