
{
  "header": {
    "reportVersion": 2,
    "event": "Allocation failed - JavaScript heap out of memory",
    "trigger": "FatalError",
    "filename": "report.20210715.103120.40212.0.001.json",
    "dumpEventTime": "2021-07-15T10:31:20Z",
    "dumpEventTimeStamp": "1626341480143",
    "processId": 40212,
    "threadId": null,
    "cwd": "C:\\xampp\\htdocs\\elagefrontfinale",
    "commandLine": [
      "C:\\Program Files\\nodejs\\node.exe",
      "C:\\Users\\Zouhair\\AppData\\Roaming\\npm/node_modules/@angular/cli/bin/ng",
      "serve",
      "--host=192.168.1.66"
    ],
    "nodejsVersion": "v12.16.2",
    "wordSize": 64,
    "arch": "x64",
    "platform": "win32",
    "componentVersions": {
      "node": "12.16.2",
      "v8": "7.8.279.23-node.34",
      "uv": "1.34.2",
      "zlib": "1.2.11",
      "brotli": "1.0.7",
      "ares": "1.15.0",
      "modules": "72",
      "nghttp2": "1.40.0",
      "napi": "5",
      "llhttp": "2.0.4",
      "http_parser": "2.9.3",
      "openssl": "1.1.1e",
      "cldr": "36.0",
      "icu": "65.1",
      "tz": "2019c",
      "unicode": "12.1"
    },
    "release": {
      "name": "node",
      "lts": "Erbium",
      "headersUrl": "https://nodejs.org/download/release/v12.16.2/node-v12.16.2-headers.tar.gz",
      "sourceUrl": "https://nodejs.org/download/release/v12.16.2/node-v12.16.2.tar.gz",
      "libUrl": "https://nodejs.org/download/release/v12.16.2/win-x64/node.lib"
    },
    "osName": "Windows_NT",
    "osRelease": "10.0.19042",
    "osVersion": "Windows 10 Pro",
    "osMachine": "x86_64",
    "cpus": [
      {
        "model": "Intel(R) Core(TM) i7-8665U CPU @ 1.90GHz",
        "speed": 2112,
        "user": 17038984,
        "nice": 0,
        "sys": 23910562,
        "idle": 524110234,
        "irq": 2175687
      },
      {
        "model": "Intel(R) Core(TM) i7-8665U CPU @ 1.90GHz",
        "speed": 2112,
        "user": 10422109,
        "nice": 0,
        "sys": 7749500,
        "idle": 546887984,
        "irq": 310937
      },
      {
        "model": "Intel(R) Core(TM) i7-8665U CPU @ 1.90GHz",
        "speed": 2112,
        "user": 22871078,
        "nice": 0,
        "sys": 17246484,
        "idle": 524942031,
        "irq": 261968
      },
      {
        "model": "Intel(R) Core(TM) i7-8665U CPU @ 1.90GHz",
        "speed": 2112,
        "user": 14807953,
        "nice": 0,
        "sys": 10515593,
        "idle": 539736046,
        "irq": 167171
      },
      {
        "model": "Intel(R) Core(TM) i7-8665U CPU @ 1.90GHz",
        "speed": 2112,
        "user": 21887703,
        "nice": 0,
        "sys": 16770078,
        "idle": 526401812,
        "irq": 327828
      },
      {
        "model": "Intel(R) Core(TM) i7-8665U CPU @ 1.90GHz",
        "speed": 2112,
        "user": 15328218,
        "nice": 0,
        "sys": 10309546,
        "idle": 539421828,
        "irq": 179875
      },
      {
        "model": "Intel(R) Core(TM) i7-8665U CPU @ 1.90GHz",
        "speed": 2112,
        "user": 21633984,
        "nice": 0,
        "sys": 12011500,
        "idle": 531414093,
        "irq": 198500
      },
      {
        "model": "Intel(R) Core(TM) i7-8665U CPU @ 1.90GHz",
        "speed": 2112,
        "user": 22032500,
        "nice": 0,
        "sys": 9913468,
        "idle": 533113609,
        "irq": 115921
      }
    ],
    "networkInterfaces": [
      {
        "name": "Connexion au réseau local",
        "internal": false,
        "mac": "00:ff:9a:a8:4c:f2",
        "address": "fe80::b1cc:ff56:de7f:1d6b",
        "netmask": "ffff:ffff:ffff:ffff::",
        "family": "IPv6",
        "scopeid": 17
      },
      {
        "name": "Connexion au réseau local",
        "internal": false,
        "mac": "00:ff:9a:a8:4c:f2",
        "address": "10.10.10.20",
        "netmask": "255.255.255.0",
        "family": "IPv4"
      },
      {
        "name": "vEthernet (Default Switch)",
        "internal": false,
        "mac": "00:15:5d:4c:5c:0b",
        "address": "fe80::743c:a75c:8cee:eedb",
        "netmask": "ffff:ffff:ffff:ffff::",
        "family": "IPv6",
        "scopeid": 57
      },
      {
        "name": "vEthernet (Default Switch)",
        "internal": false,
        "mac": "00:15:5d:4c:5c:0b",
        "address": "172.31.160.1",
        "netmask": "255.255.240.0",
        "family": "IPv4"
      },
      {
        "name": "vEthernet (local VM)",
        "internal": false,
        "mac": "00:15:5d:91:0c:04",
        "address": "fe80::5df1:4a1d:d7a0:e260",
        "netmask": "ffff:ffff:ffff:ffff::",
        "family": "IPv6",
        "scopeid": 10
      },
      {
        "name": "vEthernet (local VM)",
        "internal": false,
        "mac": "00:15:5d:91:0c:04",
        "address": "169.254.226.96",
        "netmask": "255.255.0.0",
        "family": "IPv4"
      },
      {
        "name": "Wi-Fi",
        "internal": false,
        "mac": "60:f2:62:99:cf:e6",
        "address": "192.168.1.66",
        "netmask": "255.255.255.0",
        "family": "IPv4"
      },
      {
        "name": "Loopback Pseudo-Interface 1",
        "internal": true,
        "mac": "00:00:00:00:00:00",
        "address": "::1",
        "netmask": "ffff:ffff:ffff:ffff:ffff:ffff:ffff:ffff",
        "family": "IPv6",
        "scopeid": 0
      },
      {
        "name": "Loopback Pseudo-Interface 1",
        "internal": true,
        "mac": "00:00:00:00:00:00",
        "address": "127.0.0.1",
        "netmask": "255.0.0.0",
        "family": "IPv4"
      }
    ],
    "host": "DESKTOP-67J1H08"
  },
  "javascriptStack": {
    "message": "No stack.",
    "stack": [
      "Unavailable."
    ]
  },
  "nativeStack": [
    {
      "pc": "0x00007ff7875b2309",
      "symbol": "std::basic_ostream<char,std::char_traits<char> >::operator<<+11577"
    },
    {
      "pc": "0x00007ff7875b6869",
      "symbol": "std::basic_ostream<char,std::char_traits<char> >::operator<<+29337"
    },
    {
      "pc": "0x00007ff7875b56e8",
      "symbol": "std::basic_ostream<char,std::char_traits<char> >::operator<<+24856"
    },
    {
      "pc": "0x00007ff7876ddd82",
      "symbol": "v8::base::CPU::has_sse+59378"
    },
    {
      "pc": "0x00007ff787efa27e",
      "symbol": "v8::Isolate::ReportExternalAllocationLimitReached+94"
    },
    {
      "pc": "0x00007ff787ee2351",
      "symbol": "v8::SharedArrayBuffer::Externalize+833"
    },
    {
      "pc": "0x00007ff787dae8ac",
      "symbol": "v8::internal::Heap::EphemeronKeyWriteBarrierFromCode+1436"
    },
    {
      "pc": "0x00007ff787db9ae0",
      "symbol": "v8::internal::Heap::ProtectUnprotectedMemoryChunks+1312"
    },
    {
      "pc": "0x00007ff787db6604",
      "symbol": "v8::internal::Heap::PageFlagsAreConsistent+3204"
    },
    {
      "pc": "0x00007ff787dabe03",
      "symbol": "v8::internal::Heap::CollectGarbage+1283"
    },
    {
      "pc": "0x00007ff787daa474",
      "symbol": "v8::internal::Heap::AddRetainedMap+2452"
    },
    {
      "pc": "0x00007ff787dcb67d",
      "symbol": "v8::internal::Factory::NewFillerObject+61"
    },
    {
      "pc": "0x00007ff787b313d1",
      "symbol": "v8::internal::interpreter::JumpTableTargetOffsets::iterator::operator=+1665"
    },
    {
      "pc": "0x00007ff78834730d",
      "symbol": "v8::internal::SetupIsolateDelegate::SetupHeap+546637"
    },
    {
      "pc": "0x000002c59820c177",
      "symbol": ""
    }
  ],
  "javascriptHeap": {
    "totalMemory": 2174562304,
    "totalCommittedMemory": 2174562304,
    "usedMemory": 2090901152,
    "availableMemory": 61327336,
    "memoryLimit": 2197815296,
    "heapSpaces": {
      "read_only_space": {
        "memorySize": 262144,
        "committedMemory": 262144,
        "capacity": 32808,
        "used": 32808,
        "available": 0
      },
      "new_space": {
        "memorySize": 33554432,
        "committedMemory": 33554432,
        "capacity": 16759296,
        "used": 1974592,
        "available": 14784704
      },
      "old_space": {
        "memorySize": 1889935360,
        "committedMemory": 1889935360,
        "capacity": 1881001952,
        "used": 1875094168,
        "available": 5907784
      },
      "code_space": {
        "memorySize": 6721536,
        "committedMemory": 6721536,
        "capacity": 6402048,
        "used": 5779488,
        "available": 622560
      },
      "map_space": {
        "memorySize": 45617152,
        "committedMemory": 45617152,
        "capacity": 10225680,
        "used": 10225680,
        "available": 0
      },
      "large_object_space": {
        "memorySize": 197849088,
        "committedMemory": 197849088,
        "capacity": 197250128,
        "used": 197250128,
        "available": 0
      },
      "code_large_object_space": {
        "memorySize": 622592,
        "committedMemory": 622592,
        "capacity": 544288,
        "used": 544288,
        "available": 0
      },
      "new_large_object_space": {
        "memorySize": 0,
        "committedMemory": 0,
        "capacity": 16759296,
        "used": 0,
        "available": 16759296
      }
    }
  },
  "resourceUsage": {
    "userCpuSeconds": 299.218,
    "kernelCpuSeconds": 15.828,
    "cpuConsumptionPercent": 166.691,
    "maxRss": 2495369216,
    "pageFaults": {
      "IORequired": 2092411,
      "IONotRequired": 0
    },
    "fsActivity": {
      "reads": 10481,
      "writes": 9
    }
  },
  "libuv": [
  ],
  "workers": [
  ],
  "environmentVariables": {
    "ALLUSERSPROFILE": "C:\\ProgramData",
    "ANDROID_HOME": "C:\\Users\\Zouhair\\AppData\\Local\\Android\\Sdk",
    "ANDROID_SDK_ROOT": "C:\\Users\\Zouhair\\AppData\\Local\\Android\\Sdk",
    "APPDATA": "C:\\Users\\Zouhair\\AppData\\Roaming",
    "BROWSERSLIST_IGNORE_OLD_DATA": "1",
    "CHROME_CRASHPAD_PIPE_NAME": "\\\\.\\pipe\\crashpad_4336_LLPLHGHPBBOVBCNS",
    "CommonProgramFiles": "C:\\Program Files\\Common Files",
    "CommonProgramFiles(x86)": "C:\\Program Files (x86)\\Common Files",
    "CommonProgramW6432": "C:\\Program Files\\Common Files",
    "COMPUTERNAME": "DESKTOP-67J1H08",
    "ComSpec": "C:\\WINDOWS\\system32\\cmd.exe",
    "DriverData": "C:\\Windows\\System32\\Drivers\\DriverData",
    "FPS_BROWSER_APP_PROFILE_STRING": "Internet Explorer",
    "FPS_BROWSER_USER_PROFILE_STRING": "Default",
    "HOMEDRIVE": "C:",
    "HOMEPATH": "\\Users\\Zouhair",
    "JAVA_HOME": "C:\\Program Files\\Java\\jdk1.8.0_241",
    "LOCALAPPDATA": "C:\\Users\\Zouhair\\AppData\\Local",
    "LOGONSERVER": "\\\\DESKTOP-67J1H08",
    "NUMBER_OF_PROCESSORS": "8",
    "OneDrive": "C:\\Users\\Zouhair\\OneDrive",
    "OneDriveConsumer": "C:\\Users\\Zouhair\\OneDrive",
    "OPENSSL_CONF": "C:\\Program Files\\PostgreSQL\\psqlODBC\\etc\\openssl.cnf",
    "ORIGINAL_XDG_CURRENT_DESKTOP": "undefined",
    "OS": "Windows_NT",
    "Path": "C:\\Program Files (x86)\\Common Files\\Oracle\\Java\\javapath;C:\\WINDOWS\\system32;C:\\WINDOWS;C:\\WINDOWS\\System32\\Wbem;C:\\WINDOWS\\System32\\WindowsPowerShell\\v1.0\\;C:\\WINDOWS\\System32\\OpenSSH\\;C:\\xampp\\php;C:\\Program Files\\Java\\jdk1.8.0_241\\bin;C:\\Users\\Zouhair\\AppData\\Local\\Android\\Sdk;\"C:\\Users\\Zouhair\\AppData\\Local\\Android\\Sdk\\tools;C:\\Users\\Zouhair\\AppData\\Local\\Android\\Sdk\\platform-tools\";C:\\gradle-6.3\\bin;C:\\Program Files\\nodejs\\;C:\\ProgramData\\ComposerSetup\\bin;C:\\curl;C:\\Program Files\\MySQL\\MySQL Utilities 1.6\\;C:\\Users\\Zouhair\\AppData\\Local\\Android\\Sdk;C:\\Program Files\\Symfony;C:\\Program Files\\Git\\cmd;C:\\Program Files\\PuTTY\\;C:\\Users\\Zouhair\\AppData\\Local\\Microsoft\\WindowsApps;;C:\\Users\\Zouhair\\AppData\\Local\\Programs\\Microsoft VS Code\\bin;C:\\Users\\Zouhair\\AppData\\Roaming\\npm;C:\\Users\\Zouhair\\AppData\\Roaming\\Composer\\vendor\\bin",
    "PATHEXT": ".COM;.EXE;.BAT;.CMD;.VBS;.VBE;.JS;.JSE;.WSF;.WSH;.MSC;.CPL",
    "PROCESSOR_ARCHITECTURE": "AMD64",
    "PROCESSOR_IDENTIFIER": "Intel64 Family 6 Model 142 Stepping 12, GenuineIntel",
    "PROCESSOR_LEVEL": "6",
    "PROCESSOR_REVISION": "8e0c",
    "ProgramData": "C:\\ProgramData",
    "ProgramFiles": "C:\\Program Files",
    "ProgramFiles(x86)": "C:\\Program Files (x86)",
    "ProgramW6432": "C:\\Program Files",
    "PSModulePath": "C:\\Users\\Zouhair\\Documents\\WindowsPowerShell\\Modules;C:\\Program Files\\WindowsPowerShell\\Modules;C:\\WINDOWS\\system32\\WindowsPowerShell\\v1.0\\Modules",
    "PUBLIC": "C:\\Users\\Public",
    "SESSIONNAME": "Console",
    "SystemDrive": "C:",
    "SystemRoot": "C:\\WINDOWS",
    "TEMP": "C:\\Users\\Zouhair\\AppData\\Local\\Temp",
    "TMP": "C:\\Users\\Zouhair\\AppData\\Local\\Temp",
    "USERDOMAIN": "DESKTOP-67J1H08",
    "USERDOMAIN_ROAMINGPROFILE": "DESKTOP-67J1H08",
    "USERNAME": "Zouhair",
    "USERPROFILE": "C:\\Users\\Zouhair",
    "WEBPACK_DEV_SERVER": "true",
    "windir": "C:\\WINDOWS",
    "ZES_ENABLE_SYSMAN": "1",
    "TERM_PROGRAM": "vscode",
    "TERM_PROGRAM_VERSION": "1.57.1",
    "LANG": "fr_FR.UTF-8",
    "COLORTERM": "truecolor",
    "VSCODE_GIT_IPC_HANDLE": "\\\\.\\pipe\\vscode-git-32c6a2f52b-sock",
    "GIT_ASKPASS": "c:\\Users\\Zouhair\\AppData\\Local\\Programs\\Microsoft VS Code\\resources\\app\\extensions\\git\\dist\\askpass.sh",
    "VSCODE_GIT_ASKPASS_NODE": "C:\\Users\\Zouhair\\AppData\\Local\\Programs\\Microsoft VS Code\\Code.exe",
    "VSCODE_GIT_ASKPASS_MAIN": "c:\\Users\\Zouhair\\AppData\\Local\\Programs\\Microsoft VS Code\\resources\\app\\extensions\\git\\dist\\askpass-main.js"
  },
  "sharedObjects": [
    "C:\\Program Files\\nodejs\\node.exe",
    "C:\\WINDOWS\\SYSTEM32\\ntdll.dll",
    "C:\\WINDOWS\\System32\\KERNEL32.DLL",
    "C:\\WINDOWS\\System32\\KERNELBASE.dll",
    "C:\\WINDOWS\\System32\\WS2_32.dll",
    "C:\\WINDOWS\\System32\\RPCRT4.dll",
    "C:\\WINDOWS\\SYSTEM32\\dbghelp.dll",
    "C:\\WINDOWS\\System32\\ucrtbase.dll",
    "C:\\WINDOWS\\System32\\PSAPI.DLL",
    "C:\\WINDOWS\\System32\\ADVAPI32.dll",
    "C:\\WINDOWS\\System32\\msvcrt.dll",
    "C:\\WINDOWS\\System32\\sechost.dll",
    "C:\\WINDOWS\\SYSTEM32\\USERENV.dll",
    "C:\\WINDOWS\\SYSTEM32\\IPHLPAPI.DLL",
    "C:\\WINDOWS\\System32\\USER32.dll",
    "C:\\WINDOWS\\System32\\win32u.dll",
    "C:\\WINDOWS\\System32\\GDI32.dll",
    "C:\\WINDOWS\\System32\\gdi32full.dll",
    "C:\\WINDOWS\\System32\\msvcp_win.dll",
    "C:\\WINDOWS\\System32\\CRYPT32.dll",
    "C:\\WINDOWS\\System32\\bcrypt.dll",
    "C:\\WINDOWS\\SYSTEM32\\WINMM.dll",
    "C:\\WINDOWS\\System32\\IMM32.DLL",
    "C:\\WINDOWS\\SYSTEM32\\powrprof.dll",
    "C:\\WINDOWS\\SYSTEM32\\UMPDC.dll",
    "C:\\WINDOWS\\SYSTEM32\\CRYPTBASE.DLL",
    "C:\\WINDOWS\\system32\\uxtheme.dll",
    "C:\\WINDOWS\\System32\\combase.dll",
    "C:\\WINDOWS\\system32\\mswsock.dll",
    "C:\\WINDOWS\\SYSTEM32\\kernel.appcore.dll",
    "C:\\WINDOWS\\System32\\bcryptprimitives.dll",
    "C:\\WINDOWS\\System32\\NSI.dll",
    "C:\\WINDOWS\\SYSTEM32\\dhcpcsvc6.DLL",
    "C:\\WINDOWS\\SYSTEM32\\dhcpcsvc.DLL",
    "C:\\WINDOWS\\SYSTEM32\\DNSAPI.dll",
    "C:\\WINDOWS\\system32\\napinsp.dll",
    "C:\\WINDOWS\\system32\\pnrpnsp.dll",
    "C:\\WINDOWS\\system32\\wshbth.dll",
    "C:\\WINDOWS\\system32\\NLAapi.dll",
    "C:\\WINDOWS\\System32\\winrnr.dll",
    "C:\\Windows\\System32\\rasadhlp.dll",
    "C:\\WINDOWS\\System32\\fwpuclnt.dll"
  ]
}