
{
  "header": {
    "reportVersion": 2,
    "event": "Allocation failed - JavaScript heap out of memory",
    "trigger": "FatalError",
    "filename": "report.20210729.202938.22860.0.001.json",
    "dumpEventTime": "2021-07-29T20:29:38Z",
    "dumpEventTimeStamp": "1627586978801",
    "processId": 22860,
    "threadId": null,
    "cwd": "C:\\xampp\\htdocs\\elagefrontfinale26_07_2021\\elagefrontfinale",
    "commandLine": [
      "C:\\Program Files\\nodejs\\node.exe",
      "C:\\Users\\Zouhair\\AppData\\Roaming\\npm/node_modules/@angular/cli/bin/ng",
      "serve",
      "--port=4100"
    ],
    "nodejsVersion": "v12.16.2",
    "wordSize": 64,
    "arch": "x64",
    "platform": "win32",
    "componentVersions": {
      "node": "12.16.2",
      "v8": "7.8.279.23-node.34",
      "uv": "1.34.2",
      "zlib": "1.2.11",
      "brotli": "1.0.7",
      "ares": "1.15.0",
      "modules": "72",
      "nghttp2": "1.40.0",
      "napi": "5",
      "llhttp": "2.0.4",
      "http_parser": "2.9.3",
      "openssl": "1.1.1e",
      "cldr": "36.0",
      "icu": "65.1",
      "tz": "2019c",
      "unicode": "12.1"
    },
    "release": {
      "name": "node",
      "lts": "Erbium",
      "headersUrl": "https://nodejs.org/download/release/v12.16.2/node-v12.16.2-headers.tar.gz",
      "sourceUrl": "https://nodejs.org/download/release/v12.16.2/node-v12.16.2.tar.gz",
      "libUrl": "https://nodejs.org/download/release/v12.16.2/win-x64/node.lib"
    },
    "osName": "Windows_NT",
    "osRelease": "10.0.19042",
    "osVersion": "Windows 10 Pro",
    "osMachine": "x86_64",
    "cpus": [
      {
        "model": "Intel(R) Core(TM) i7-8665U CPU @ 1.90GHz",
        "speed": 2112,
        "user": 10571265,
        "nice": 0,
        "sys": 14477062,
        "idle": 261862453,
        "irq": 1669718
      },
      {
        "model": "Intel(R) Core(TM) i7-8665U CPU @ 1.90GHz",
        "speed": 2112,
        "user": 7767890,
        "nice": 0,
        "sys": 5116656,
        "idle": 274026046,
        "irq": 213484
      },
      {
        "model": "Intel(R) Core(TM) i7-8665U CPU @ 1.90GHz",
        "speed": 2112,
        "user": 17078468,
        "nice": 0,
        "sys": 10793750,
        "idle": 259038375,
        "irq": 158093
      },
      {
        "model": "Intel(R) Core(TM) i7-8665U CPU @ 1.90GHz",
        "speed": 2112,
        "user": 11005562,
        "nice": 0,
        "sys": 5771109,
        "idle": 270133921,
        "irq": 90906
      },
      {
        "model": "Intel(R) Core(TM) i7-8665U CPU @ 1.90GHz",
        "speed": 2112,
        "user": 16394187,
        "nice": 0,
        "sys": 10598156,
        "idle": 259918250,
        "irq": 185609
      },
      {
        "model": "Intel(R) Core(TM) i7-8665U CPU @ 1.90GHz",
        "speed": 2112,
        "user": 10355953,
        "nice": 0,
        "sys": 5488843,
        "idle": 271065796,
        "irq": 92312
      },
      {
        "model": "Intel(R) Core(TM) i7-8665U CPU @ 1.90GHz",
        "speed": 2112,
        "user": 15383546,
        "nice": 0,
        "sys": 7462890,
        "idle": 264064140,
        "irq": 117531
      },
      {
        "model": "Intel(R) Core(TM) i7-8665U CPU @ 1.90GHz",
        "speed": 2112,
        "user": 13273671,
        "nice": 0,
        "sys": 5794359,
        "idle": 267842546,
        "irq": 74109
      }
    ],
    "networkInterfaces": [
      {
        "name": "Connexion au réseau local",
        "internal": false,
        "mac": "00:ff:9a:a8:4c:f2",
        "address": "fe80::b1cc:ff56:de7f:1d6b",
        "netmask": "ffff:ffff:ffff:ffff::",
        "family": "IPv6",
        "scopeid": 18
      },
      {
        "name": "Connexion au réseau local",
        "internal": false,
        "mac": "00:ff:9a:a8:4c:f2",
        "address": "10.10.10.20",
        "netmask": "255.255.255.0",
        "family": "IPv4"
      },
      {
        "name": "vEthernet (Default Switch)",
        "internal": false,
        "mac": "00:15:5d:98:29:c6",
        "address": "fe80::e057:4d2a:4eb0:402",
        "netmask": "ffff:ffff:ffff:ffff::",
        "family": "IPv6",
        "scopeid": 54
      },
      {
        "name": "vEthernet (Default Switch)",
        "internal": false,
        "mac": "00:15:5d:98:29:c6",
        "address": "172.22.16.1",
        "netmask": "255.255.240.0",
        "family": "IPv4"
      },
      {
        "name": "vEthernet (local VM)",
        "internal": false,
        "mac": "00:15:5d:91:0c:04",
        "address": "fe80::5df1:4a1d:d7a0:e260",
        "netmask": "ffff:ffff:ffff:ffff::",
        "family": "IPv6",
        "scopeid": 12
      },
      {
        "name": "vEthernet (local VM)",
        "internal": false,
        "mac": "00:15:5d:91:0c:04",
        "address": "192.168.137.1",
        "netmask": "255.255.255.0",
        "family": "IPv4"
      },
      {
        "name": "Wi-Fi",
        "internal": false,
        "mac": "60:f2:62:99:cf:e6",
        "address": "192.168.1.66",
        "netmask": "255.255.255.0",
        "family": "IPv4"
      },
      {
        "name": "Loopback Pseudo-Interface 1",
        "internal": true,
        "mac": "00:00:00:00:00:00",
        "address": "::1",
        "netmask": "ffff:ffff:ffff:ffff:ffff:ffff:ffff:ffff",
        "family": "IPv6",
        "scopeid": 0
      },
      {
        "name": "Loopback Pseudo-Interface 1",
        "internal": true,
        "mac": "00:00:00:00:00:00",
        "address": "127.0.0.1",
        "netmask": "255.0.0.0",
        "family": "IPv4"
      }
    ],
    "host": "DESKTOP-67J1H08"
  },
  "javascriptStack": {
    "message": "No stack.",
    "stack": [
      "Unavailable."
    ]
  },
  "nativeStack": [
    {
      "pc": "0x00007ff7a84c2309",
      "symbol": "std::basic_ostream<char,std::char_traits<char> >::operator<<+11577"
    },
    {
      "pc": "0x00007ff7a84c6869",
      "symbol": "std::basic_ostream<char,std::char_traits<char> >::operator<<+29337"
    },
    {
      "pc": "0x00007ff7a84c56e8",
      "symbol": "std::basic_ostream<char,std::char_traits<char> >::operator<<+24856"
    },
    {
      "pc": "0x00007ff7a85edd82",
      "symbol": "v8::base::CPU::has_sse+59378"
    },
    {
      "pc": "0x00007ff7a8e0a27e",
      "symbol": "v8::Isolate::ReportExternalAllocationLimitReached+94"
    },
    {
      "pc": "0x00007ff7a8df2351",
      "symbol": "v8::SharedArrayBuffer::Externalize+833"
    },
    {
      "pc": "0x00007ff7a8cbe8ac",
      "symbol": "v8::internal::Heap::EphemeronKeyWriteBarrierFromCode+1436"
    },
    {
      "pc": "0x00007ff7a8cc9ae0",
      "symbol": "v8::internal::Heap::ProtectUnprotectedMemoryChunks+1312"
    },
    {
      "pc": "0x00007ff7a8cc6604",
      "symbol": "v8::internal::Heap::PageFlagsAreConsistent+3204"
    },
    {
      "pc": "0x00007ff7a8cbbe03",
      "symbol": "v8::internal::Heap::CollectGarbage+1283"
    },
    {
      "pc": "0x00007ff7a8cba474",
      "symbol": "v8::internal::Heap::AddRetainedMap+2452"
    },
    {
      "pc": "0x00007ff7a8cdb67d",
      "symbol": "v8::internal::Factory::NewFillerObject+61"
    },
    {
      "pc": "0x00007ff7a8a413d1",
      "symbol": "v8::internal::interpreter::JumpTableTargetOffsets::iterator::operator=+1665"
    },
    {
      "pc": "0x00007ff7a925730d",
      "symbol": "v8::internal::SetupIsolateDelegate::SetupHeap+546637"
    },
    {
      "pc": "0x00007ff7a91d7ce1",
      "symbol": "v8::internal::SetupIsolateDelegate::SetupHeap+24865"
    },
    {
      "pc": "0x00007ff7a91d777f",
      "symbol": "v8::internal::SetupIsolateDelegate::SetupHeap+23487"
    },
    {
      "pc": "0x000001ed240e7b3d",
      "symbol": ""
    }
  ],
  "javascriptHeap": {
    "totalMemory": 2197778432,
    "totalCommittedMemory": 2197778432,
    "usedMemory": 2121986728,
    "availableMemory": 34999120,
    "memoryLimit": 2197815296,
    "heapSpaces": {
      "read_only_space": {
        "memorySize": 262144,
        "committedMemory": 262144,
        "capacity": 32808,
        "used": 32808,
        "available": 0
      },
      "new_space": {
        "memorySize": 33554432,
        "committedMemory": 33554432,
        "capacity": 16759296,
        "used": 6763056,
        "available": 9996240
      },
      "old_space": {
        "memorySize": 1777475584,
        "committedMemory": 1777475584,
        "capacity": 1766178176,
        "used": 1757971456,
        "available": 8206720
      },
      "code_space": {
        "memorySize": 6983680,
        "committedMemory": 6983680,
        "capacity": 6179904,
        "used": 6179904,
        "available": 0
      },
      "map_space": {
        "memorySize": 37752832,
        "committedMemory": 37752832,
        "capacity": 10067680,
        "used": 10067680,
        "available": 0
      },
      "large_object_space": {
        "memorySize": 341127168,
        "committedMemory": 341127168,
        "capacity": 340427536,
        "used": 340427536,
        "available": 0
      },
      "code_large_object_space": {
        "memorySize": 622592,
        "committedMemory": 622592,
        "capacity": 544288,
        "used": 544288,
        "available": 0
      },
      "new_large_object_space": {
        "memorySize": 0,
        "committedMemory": 0,
        "capacity": 16759296,
        "used": 0,
        "available": 16759296
      }
    }
  },
  "resourceUsage": {
    "userCpuSeconds": 504.093,
    "kernelCpuSeconds": 26.562,
    "cpuConsumptionPercent": 66.7491,
    "maxRss": 2458312704,
    "pageFaults": {
      "IORequired": 3649272,
      "IONotRequired": 0
    },
    "fsActivity": {
      "reads": 12514,
      "writes": 12
    }
  },
  "libuv": [
  ],
  "workers": [
  ],
  "environmentVariables": {
    "ALLUSERSPROFILE": "C:\\ProgramData",
    "ANDROID_HOME": "C:\\Users\\Zouhair\\AppData\\Local\\Android\\Sdk",
    "ANDROID_SDK_ROOT": "C:\\Users\\Zouhair\\AppData\\Local\\Android\\Sdk",
    "APPDATA": "C:\\Users\\Zouhair\\AppData\\Roaming",
    "APPLICATION_INSIGHTS_NO_DIAGNOSTIC_CHANNEL": "true",
    "BROWSERSLIST_IGNORE_OLD_DATA": "1",
    "CHROME_CRASHPAD_PIPE_NAME": "\\\\.\\pipe\\crashpad_2824_HMTMVTCDNLCJSLBS",
    "CommonProgramFiles": "C:\\Program Files\\Common Files",
    "CommonProgramFiles(x86)": "C:\\Program Files (x86)\\Common Files",
    "CommonProgramW6432": "C:\\Program Files\\Common Files",
    "COMPUTERNAME": "DESKTOP-67J1H08",
    "ComSpec": "C:\\WINDOWS\\system32\\cmd.exe",
    "DriverData": "C:\\Windows\\System32\\Drivers\\DriverData",
    "FPS_BROWSER_APP_PROFILE_STRING": "Internet Explorer",
    "FPS_BROWSER_USER_PROFILE_STRING": "Default",
    "HOMEDRIVE": "C:",
    "HOMEPATH": "\\Users\\Zouhair",
    "JAVA_HOME": "C:\\Program Files\\Java\\jdk1.8.0_241",
    "LOCALAPPDATA": "C:\\Users\\Zouhair\\AppData\\Local",
    "LOGONSERVER": "\\\\DESKTOP-67J1H08",
    "NUMBER_OF_PROCESSORS": "8",
    "OneDrive": "C:\\Users\\Zouhair\\OneDrive",
    "OneDriveConsumer": "C:\\Users\\Zouhair\\OneDrive",
    "OPENSSL_CONF": "C:\\Program Files\\PostgreSQL\\psqlODBC\\etc\\openssl.cnf",
    "ORIGINAL_XDG_CURRENT_DESKTOP": "undefined",
    "OS": "Windows_NT",
    "Path": "C:\\Program Files (x86)\\Common Files\\Oracle\\Java\\javapath;C:\\WINDOWS\\system32;C:\\WINDOWS;C:\\WINDOWS\\System32\\Wbem;C:\\WINDOWS\\System32\\WindowsPowerShell\\v1.0\\;C:\\WINDOWS\\System32\\OpenSSH\\;C:\\xampp\\php;C:\\Program Files\\Java\\jdk1.8.0_241\\bin;C:\\Users\\Zouhair\\AppData\\Local\\Android\\Sdk;\"C:\\Users\\Zouhair\\AppData\\Local\\Android\\Sdk\\tools;C:\\Users\\Zouhair\\AppData\\Local\\Android\\Sdk\\platform-tools\";C:\\gradle-6.3\\bin;C:\\Program Files\\nodejs\\;C:\\ProgramData\\ComposerSetup\\bin;C:\\curl;C:\\Program Files\\MySQL\\MySQL Utilities 1.6\\;C:\\Users\\Zouhair\\AppData\\Local\\Android\\Sdk;C:\\Program Files\\Symfony;C:\\Program Files\\Git\\cmd;C:\\Program Files\\PuTTY\\;C:\\Users\\Zouhair\\AppData\\Local\\Microsoft\\WindowsApps;;C:\\Users\\Zouhair\\AppData\\Local\\Programs\\Microsoft VS Code\\bin;C:\\Users\\Zouhair\\AppData\\Roaming\\npm;C:\\Users\\Zouhair\\AppData\\Roaming\\Composer\\vendor\\bin",
    "PATHEXT": ".COM;.EXE;.BAT;.CMD;.VBS;.VBE;.JS;.JSE;.WSF;.WSH;.MSC;.CPL",
    "PROCESSOR_ARCHITECTURE": "AMD64",
    "PROCESSOR_IDENTIFIER": "Intel64 Family 6 Model 142 Stepping 12, GenuineIntel",
    "PROCESSOR_LEVEL": "6",
    "PROCESSOR_REVISION": "8e0c",
    "ProgramData": "C:\\ProgramData",
    "ProgramFiles": "C:\\Program Files",
    "ProgramFiles(x86)": "C:\\Program Files (x86)",
    "ProgramW6432": "C:\\Program Files",
    "PROMPT": "$P$G",
    "PSModulePath": "C:\\Users\\Zouhair\\Documents\\WindowsPowerShell\\Modules;C:\\Program Files\\WindowsPowerShell\\Modules;C:\\WINDOWS\\system32\\WindowsPowerShell\\v1.0\\Modules",
    "PUBLIC": "C:\\Users\\Public",
    "SESSIONNAME": "Console",
    "SystemDrive": "C:",
    "SystemRoot": "C:\\WINDOWS",
    "TEMP": "C:\\Users\\Zouhair\\AppData\\Local\\Temp",
    "TMP": "C:\\Users\\Zouhair\\AppData\\Local\\Temp",
    "USERDOMAIN": "DESKTOP-67J1H08",
    "USERDOMAIN_ROAMINGPROFILE": "DESKTOP-67J1H08",
    "USERNAME": "Zouhair",
    "USERPROFILE": "C:\\Users\\Zouhair",
    "WEBPACK_DEV_SERVER": "true",
    "windir": "C:\\WINDOWS",
    "ZES_ENABLE_SYSMAN": "1",
    "TERM_PROGRAM": "vscode",
    "TERM_PROGRAM_VERSION": "1.58.2",
    "LANG": "fr_FR.UTF-8",
    "COLORTERM": "truecolor",
    "VSCODE_GIT_IPC_HANDLE": "\\\\.\\pipe\\vscode-git-c7eb531e2e-sock",
    "GIT_ASKPASS": "c:\\Users\\Zouhair\\AppData\\Local\\Programs\\Microsoft VS Code\\resources\\app\\extensions\\git\\dist\\askpass.sh",
    "VSCODE_GIT_ASKPASS_NODE": "C:\\Users\\Zouhair\\AppData\\Local\\Programs\\Microsoft VS Code\\Code.exe",
    "VSCODE_GIT_ASKPASS_MAIN": "c:\\Users\\Zouhair\\AppData\\Local\\Programs\\Microsoft VS Code\\resources\\app\\extensions\\git\\dist\\askpass-main.js"
  },
  "sharedObjects": [
    "C:\\Program Files\\nodejs\\node.exe",
    "C:\\WINDOWS\\SYSTEM32\\ntdll.dll",
    "C:\\WINDOWS\\System32\\KERNEL32.DLL",
    "C:\\WINDOWS\\System32\\KERNELBASE.dll",
    "C:\\WINDOWS\\System32\\WS2_32.dll",
    "C:\\WINDOWS\\System32\\RPCRT4.dll",
    "C:\\WINDOWS\\SYSTEM32\\dbghelp.dll",
    "C:\\WINDOWS\\System32\\PSAPI.DLL",
    "C:\\WINDOWS\\System32\\ucrtbase.dll",
    "C:\\WINDOWS\\System32\\ADVAPI32.dll",
    "C:\\WINDOWS\\System32\\msvcrt.dll",
    "C:\\WINDOWS\\SYSTEM32\\IPHLPAPI.DLL",
    "C:\\WINDOWS\\SYSTEM32\\USERENV.dll",
    "C:\\WINDOWS\\System32\\sechost.dll",
    "C:\\WINDOWS\\System32\\USER32.dll",
    "C:\\WINDOWS\\System32\\win32u.dll",
    "C:\\WINDOWS\\System32\\GDI32.dll",
    "C:\\WINDOWS\\System32\\gdi32full.dll",
    "C:\\WINDOWS\\System32\\msvcp_win.dll",
    "C:\\WINDOWS\\System32\\CRYPT32.dll",
    "C:\\WINDOWS\\System32\\bcrypt.dll",
    "C:\\WINDOWS\\SYSTEM32\\WINMM.dll",
    "C:\\WINDOWS\\System32\\IMM32.DLL",
    "C:\\WINDOWS\\SYSTEM32\\powrprof.dll",
    "C:\\WINDOWS\\SYSTEM32\\UMPDC.dll",
    "C:\\WINDOWS\\SYSTEM32\\CRYPTBASE.DLL",
    "C:\\WINDOWS\\system32\\uxtheme.dll",
    "C:\\WINDOWS\\System32\\combase.dll",
    "C:\\WINDOWS\\system32\\mswsock.dll",
    "C:\\WINDOWS\\SYSTEM32\\kernel.appcore.dll",
    "C:\\WINDOWS\\System32\\bcryptprimitives.dll",
    "C:\\WINDOWS\\System32\\NSI.dll",
    "C:\\WINDOWS\\SYSTEM32\\dhcpcsvc6.DLL",
    "C:\\WINDOWS\\SYSTEM32\\dhcpcsvc.DLL",
    "C:\\WINDOWS\\SYSTEM32\\DNSAPI.dll",
    "C:\\WINDOWS\\system32\\napinsp.dll",
    "C:\\WINDOWS\\system32\\pnrpnsp.dll",
    "C:\\WINDOWS\\system32\\wshbth.dll",
    "C:\\WINDOWS\\system32\\NLAapi.dll",
    "C:\\WINDOWS\\System32\\winrnr.dll",
    "C:\\Windows\\System32\\rasadhlp.dll",
    "C:\\WINDOWS\\System32\\fwpuclnt.dll"
  ]
}